%YAML 1.1
%TAG !u! tag:unity3d.com,2011:
--- !u!21 &2100000
Material:
  serializedVersion: 6
  m_ObjectHideFlags: 0
  m_CorrespondingSourceObject: {fileID: 0}
  m_PrefabInstance: {fileID: 0}
  m_PrefabAsset: {fileID: 0}
  m_Name: BeveledLeadedGlassDiamondOld_metallic
  m_Shader: {fileID: 4800000, guid: 98efb65f4a247f144aa4201a03118ab1, type: 3}
  m_ShaderKeywords: 
  m_LightmapFlags: 4
  m_EnableInstancingVariants: 0
  m_DoubleSidedGI: 0
  m_CustomRenderQueue: -1
  stringTagMap: {}
  disabledShaderPasses: []
  m_SavedProperties:
    serializedVersion: 3
    m_TexEnvs:
    - _AmbientOcclusion:
        m_Texture: {fileID: 2800000, guid: ad30b5403335cfa4a8b375df6f38fbe2, type: 3}
        m_Scale: {x: 1, y: 1}
        m_Offset: {x: 0, y: 0}
    - _BaseColor:
        m_Texture: {fileID: 2800000, guid: 572d19c2a9f3d4b4e9bb94a5b7e1ba93, type: 3}
        m_Scale: {x: 1, y: 1}
        m_Offset: {x: 0, y: 0}
    - _Emissive:
        m_Texture: {fileID: 2800000, guid: a28a0d8d9df2de643869955f74efa97c, type: 3}
        m_Scale: {x: 1, y: 1}
        m_Offset: {x: 0, y: 0}
    - _Height:
        m_Texture: {fileID: 2800000, guid: ce3e47b88fe9def4cb118c8269e7ff02, type: 3}
        m_Scale: {x: 1, y: 1}
        m_Offset: {x: 0, y: 0}
    - _Metallic:
        m_Texture: {fileID: 2800000, guid: 47859b034a0e66f4497adea2f3fe6b5c, type: 3}
        m_Scale: {x: 1, y: 1}
        m_Offset: {x: 0, y: 0}
    - _Normal:
        m_Texture: {fileID: 2800000, guid: 277822c40c3ee654b80d519183733155, type: 3}
        m_Scale: {x: 1, y: 1}
        m_Offset: {x: 0, y: 0}
    - _Opacity:
        m_Texture: {fileID: 2800000, guid: d3ba03249c1465140a2470f973055580, type: 3}
        m_Scale: {x: 1, y: 1}
        m_Offset: {x: 0, y: 0}
    - _texcoord:
        m_Texture: {fileID: 0}
        m_Scale: {x: 1, y: 1}
        m_Offset: {x: 0, y: 0}
    m_Floats:
    - _AmbientOcclusionMultiplier: 1
    - _CurvFix: 1
    - _CurvatureU: 0
    - _CurvatureV: 0
    - _Cutoff: 1
    - _EmissiveMultiplier: 1
    - _Invert_Normal: 0
    - _Invert_Roughness: 0
    - _POMHeight: 0
    - _RoughnessMultiplier: 1
    - _Use_POM: 0
    - __dirty: 1
    m_Colors:
    - _BaseColorTint: {r: 1, g: 1, b: 1, a: 1}
    - _UVTileOffset: {r: 1, g: 1, b: 0, a: 0}
