%YAML 1.1
%TAG !u! tag:unity3d.com,2011:
--- !u!21 &2100000
Material:
  serializedVersion: 6
  m_ObjectHideFlags: 0
  m_CorrespondingSourceObject: {fileID: 0}
  m_PrefabInstance: {fileID: 0}
  m_PrefabAsset: {fileID: 0}
  m_Name: RoundCeramicShingleOvergrown_metallic
  m_Shader: {fileID: 4800000, guid: 98efb65f4a247f144aa4201a03118ab1, type: 3}
  m_ShaderKeywords: 
  m_LightmapFlags: 4
  m_EnableInstancingVariants: 0
  m_DoubleSidedGI: 0
  m_CustomRenderQueue: -1
  stringTagMap: {}
  disabledShaderPasses: []
  m_SavedProperties:
    serializedVersion: 3
    m_TexEnvs:
    - _AmbientOcclusion:
        m_Texture: {fileID: 2800000, guid: 69b34ef9a47a79e4b853e354e674278c, type: 3}
        m_Scale: {x: 1, y: 1}
        m_Offset: {x: 0, y: 0}
    - _BaseColor:
        m_Texture: {fileID: 2800000, guid: f8fa64cfc40136f4dbf25bc06debbcbe, type: 3}
        m_Scale: {x: 1, y: 1}
        m_Offset: {x: 0, y: 0}
    - _Emissive:
        m_Texture: {fileID: 2800000, guid: 6802eebfcf2068e4aa098d2d04b97878, type: 3}
        m_Scale: {x: 1, y: 1}
        m_Offset: {x: 0, y: 0}
    - _Height:
        m_Texture: {fileID: 2800000, guid: 292d5908e84cff04a8bb23f5368371a8, type: 3}
        m_Scale: {x: 1, y: 1}
        m_Offset: {x: 0, y: 0}
    - _Metallic:
        m_Texture: {fileID: 2800000, guid: 5504a0626b97e1e4180792f290659659, type: 3}
        m_Scale: {x: 1, y: 1}
        m_Offset: {x: 0, y: 0}
    - _Normal:
        m_Texture: {fileID: 2800000, guid: a10b78d1b55d6474881875c40436ad07, type: 3}
        m_Scale: {x: 1, y: 1}
        m_Offset: {x: 0, y: 0}
    - _Opacity:
        m_Texture: {fileID: 2800000, guid: 54f851887c8e06a4d97f3e58461e0858, type: 3}
        m_Scale: {x: 1, y: 1}
        m_Offset: {x: 0, y: 0}
    - _texcoord:
        m_Texture: {fileID: 0}
        m_Scale: {x: 1, y: 1}
        m_Offset: {x: 0, y: 0}
    m_Floats:
    - _AmbientOcclusionMultiplier: 1
    - _CurvFix: 1
    - _CurvatureU: 0
    - _CurvatureV: 0
    - _Cutoff: 1
    - _EmissiveMultiplier: 1
    - _Invert_Normal: 0
    - _Invert_Roughness: 0
    - _POMHeight: 0
    - _RoughnessMultiplier: 1
    - _Use_POM: 0
    - __dirty: 1
    m_Colors:
    - _BaseColorTint: {r: 1, g: 1, b: 1, a: 1}
    - _UVTileOffset: {r: 1, g: 1, b: 0, a: 0}
